waveforms/alu.vcd
$date
	Fri Jul 18 15:13:43 2025
$end
$version
	Icarus Verilog
$end
$timescale
	1ns
$end
$scope module alu_tb $end
$var wire 32 ! o_c [31:0] $end
$var reg 1 " clk $end
$var reg 32 # i_a [31:0] $end
$var reg 6 $ i_alu_op [5:0] $end
$var reg 32 % i_b [31:0] $end
$scope module dut $end
$var wire 32 & i_a [31:0] $end
$var wire 6 ' i_alu_op [5:0] $end
$var wire 32 ( i_b [31:0] $end
$var reg 32 ) o_c [31:0] $end
$upscope $end
$upscope $end
$enddefinitions $end
$comment Show the parameter values. $end
$dumpall
$end
#0
$dumpvars
b10 )
b1 (
b11001 '
b1 &
b1 %
b11001 $
b1 #
0"
b10 !
$end
#5
1"
#10
b0 !
b0 )
0"
b11011 $
b11011 '
#15
1"
#20
b1 !
b1 )
0"
b11101 $
b11101 '
b10000000000000001 %
b10000000000000001 (
b100000001 #
b100000001 &
#25
1"
#30
b10000000100000001 !
b10000000100000001 )
0"
b11111 $
b11111 '
#35
1"
#40
b10000000100000000 !
b10000000100000000 )
0"
b100001 $
b100001 '
#45
1"
#50
b1 !
b1 )
0"
b100011 $
b100011 '
#55
1"
#60
b10000000000000000 !
b10000000000000000 )
0"
b100111 $
b100111 '
b10000 %
b10000 (
b1 #
b1 &
#65
1"
#70
b10000000 !
b10000000 )
0"
b101001 $
b101001 '
b1 %
b1 (
b100000000 #
b100000000 &
#75
1"
#80
b11111111111111111111111111111110 !
b11111111111111111111111111111110 )
0"
b101011 $
b101011 '
b11 %
b11 (
b11111111111111111111111111110000 #
b11111111111111111111111111110000 &
#85
1"
#90
b11111111111111111111111111111111 !
b11111111111111111111111111111111 )
0"
b11111 %
b11111 (
b10000000000000000000000000000000 #
b10000000000000000000000000000000 &
