waveforms/top.vcd
$date
	Thu Jul 24 13:07:55 2025
$end
$version
	Icarus Verilog
$end
$timescale
	1ns
$end
$scope module top_tb $end
$scope module dut $end
$var wire 1 ! clk $end
$var wire 32 " debug [31:0] $end
$var wire 1 # rst $end
$var wire 1 $ take $end
$var wire 32 % sel_alu_src_b [31:0] $end
$var wire 32 & sel_alu_src_a [31:0] $end
$var wire 5 ' rs2_addr [4:0] $end
$var wire 32 ( rs2 [31:0] $end
$var wire 5 ) rs1_addr [4:0] $end
$var wire 32 * rs1 [31:0] $end
$var wire 2 + result_mux [1:0] $end
$var wire 1 , reg_write $end
$var wire 5 - rd_addr [4:0] $end
$var wire 32 . rd [31:0] $end
$var wire 7 / opcode [6:0] $end
$var wire 1 0 mem_write $end
$var wire 32 1 inst [31:0] $end
$var wire 32 2 immediate [31:0] $end
$var wire 32 3 data [31:0] $end
$var wire 3 4 branch_op [2:0] $end
$var wire 1 5 branch $end
$var wire 1 6 alu_src_b $end
$var wire 1 7 alu_src_a $end
$var wire 6 8 alu_op [5:0] $end
$var reg 32 9 pc [31:0] $end
$var reg 32 : result [31:0] $end
$scope module alu $end
$var wire 32 ; i_a [31:0] $end
$var wire 32 < i_b [31:0] $end
$var wire 6 = i_alu_op [5:0] $end
$var reg 32 > o_c [31:0] $end
$upscope $end
$scope module b $end
$var wire 3 ? i_branch_op [2:0] $end
$var wire 1 5 i_branch $end
$var wire 32 @ i_b [31:0] $end
$var wire 32 A i_a [31:0] $end
$var reg 1 $ o_take $end
$upscope $end
$scope module dec $end
$var wire 7 B o_opcode [6:0] $end
$var wire 7 C opcode [6:0] $end
$var wire 5 D o_rs2_addr [4:0] $end
$var wire 5 E o_rs1_addr [4:0] $end
$var wire 5 F o_rd_addr [4:0] $end
$var wire 32 G i_inst [31:0] $end
$var wire 7 H funct_7 [6:0] $end
$var wire 3 I funct_3 [2:0] $end
$var reg 6 J o_alu_op [5:0] $end
$var reg 1 7 o_alu_src_a $end
$var reg 1 6 o_alu_src_b $end
$var reg 1 5 o_branch $end
$var reg 3 K o_branch_op [2:0] $end
$var reg 1 0 o_mem_write $end
$var reg 1 , o_reg_write $end
$var reg 2 L o_result_mux [1:0] $end
$upscope $end
$scope module dmem $end
$var wire 10 M i_addr [9:0] $end
$var wire 1 ! i_clk $end
$var wire 1 0 i_we $end
$var wire 32 N o_data [31:0] $end
$var wire 32 O i_data [31:0] $end
$var parameter 32 P MEM_SIZE $end
$var integer 32 Q i [31:0] $end
$upscope $end
$scope module imem $end
$var wire 10 R addr [9:0] $end
$var parameter 32 S MEM_SIZE $end
$var reg 32 T inst [31:0] $end
$upscope $end
$scope module reg_file $end
$var wire 1 ! i_clk $end
$var wire 32 U i_rd [31:0] $end
$var wire 5 V i_rd_addr [4:0] $end
$var wire 5 W i_rs1_addr [4:0] $end
$var wire 5 X i_rs2_addr [4:0] $end
$var wire 1 # i_rst $end
$var wire 1 , i_we $end
$var wire 32 Y o_rs1 [31:0] $end
$var wire 32 Z o_rs2 [31:0] $end
$var integer 32 [ i [31:0] $end
$upscope $end
$scope module sign_ext $end
$var wire 32 \ i_inst [31:0] $end
$var wire 7 ] i_opcode [6:0] $end
$var reg 32 ^ immediate_extended [31:0] $end
$upscope $end
$upscope $end
$upscope $end
$enddefinitions $end
$comment Show the parameter values. $end
$dumpall
b10000000000 S
b10000000000 P
$end
#0
$dumpvars
b101 ^
b10011 ]
b10100000000000010010011 \
b100000 [
b0 Z
b0 Y
b101 X
b0 W
b1 V
b101 U
b10100000000000010010011 T
b0 R
b10000000000 Q
b0 O
b1101111011101110010000001101111 N
b101 M
b0 L
b0 K
b11001 J
b0 I
b0 H
b10100000000000010010011 G
b1 F
b0 E
b101 D
b10011 C
b10011 B
b0 A
b0 @
b0 ?
b101 >
b11001 =
b101 <
b0 ;
b101 :
b0 9
b11001 8
07
16
05
b0 4
b1101111011101110010000001101111 3
b101 2
b10100000000000010010011 1
00
b10011 /
b101 .
b1 -
1,
b0 +
b0 *
b0 )
b0 (
b101 '
b0 &
b101 %
0$
1#
b101 "
0!
$end
#5
b100000 [
1!
#10
0!
0#
#15
b1101100011011000110010101001000 3
b1101100011011000110010101001000 N
b0 M
b0 "
b0 :
b0 U
b0 .
b0 >
b1010 )
b1010 E
b1010 W
b0 %
b0 <
b0 '
b0 D
b0 X
b1010 -
b1010 F
b1010 V
b110011 /
b110011 B
b110011 ]
b110011 C
1,
06
b11111111111111111111111111111111 2
b11111111111111111111111111111111 ^
b1010000010100110011 1
b1010000010100110011 G
b1010000010100110011 T
b1010000010100110011 \
b100 R
b100 9
1!
#20
0!
#25
b1101111011101110010000001101111 3
b1101111011101110010000001101111 N
b101 M
b101 "
b101 :
b101 U
b101 .
b101 >
b101 %
b101 <
b101 (
b101 @
b101 O
b101 Z
b1 '
b1 D
b1 X
1,
b101010000010100110011 1
b101010000010100110011 G
b101010000010100110011 T
b101010000010100110011 \
b1000 R
b1000 9
1!
#30
0!
#35
b1101111011101110010000001101111 3
b1101111011101110010000001101111 N
b11111111111111111111111111111111 %
b11111111111111111111111111111111 <
b1 )
b1 E
b1 W
16
b100 M
b100 "
b100 :
b100 U
b0 (
b0 @
b0 O
b0 Z
b11111 '
b11111 D
b11111 X
b1 -
b1 F
b1 V
b1111111 H
b10011 /
b10011 B
b10011 ]
b10011 C
b11001 8
b11001 =
b11001 J
1,
b100 .
b100 >
b11111111111100001000000010010011 1
b11111111111100001000000010010011 G
b11111111111100001000000010010011 T
b11111111111100001000000010010011 \
b101 &
b101 ;
b1100 R
b101 *
b101 A
b101 Y
b1100 9
1!
#40
0!
#45
1$
b1 4
b1 ?
b1 K
17
15
b11111111111111111111111111111000 %
b11111111111111111111111111111000 <
b100001011001000110110001110010 3
b100001011001000110110001110010 N
b0 '
b0 D
b0 X
b11001 -
b11001 F
b11001 V
b1 I
b1100011 /
b1100011 B
b1100011 ]
b1100011 C
0,
16
b11111111111111111111111111111000 2
b11111111111111111111111111111000 ^
b1000 M
b1000 "
b1000 :
b1000 U
b11111110000000001001110011100011 1
b11111110000000001001110011100011 G
b11111110000000001001110011100011 T
b11111110000000001001110011100011 \
b1000 .
b1000 >
b10000 R
b10000 &
b10000 ;
b10000 9
b100 *
b100 A
b100 Y
1!
#50
0!
#55
b101 *
b101 A
b101 Y
b1010 )
b1010 E
b1010 W
1,
0$
b100 %
b100 <
b100001011001000110110001110010 3
b100001011001000110110001110010 N
b100 (
b100 @
b100 O
b100 Z
b1 '
b1 D
b1 X
b1010 -
b1010 F
b1010 V
b0 I
b0 H
b110011 /
b110011 B
b110011 ]
b110011 C
06
07
b0 4
b0 ?
b0 K
05
b11111111111111111111111111111111 2
b11111111111111111111111111111111 ^
b1001 M
b1001 "
b1001 :
b1001 U
b101010000010100110011 1
b101010000010100110011 G
b101010000010100110011 T
b101010000010100110011 \
b1001 .
b1001 >
b1000 R
b101 &
b101 ;
b1000 9
1!
#60
0!
#65
b11111111111111111111111111111111 %
b11111111111111111111111111111111 <
b1 )
b1 E
b1 W
16
b1101100011011000110010101001000 3
b1101100011011000110010101001000 N
b0 (
b0 @
b0 O
b0 Z
b11111 '
b11111 D
b11111 X
b1 -
b1 F
b1 V
b1111111 H
b10011 /
b10011 B
b10011 ]
b10011 C
b11001 8
b11001 =
b11001 J
1,
b11 M
b11 "
b11 :
b11 U
b11111111111100001000000010010011 1
b11111111111100001000000010010011 G
b11111111111100001000000010010011 T
b11111111111100001000000010010011 \
b11 .
b11 >
b1100 R
b100 &
b100 ;
b1100 9
b100 *
b100 A
b100 Y
1!
#70
0!
#75
b100001011001000110110001110010 3
b100001011001000110110001110010 N
1$
b1 4
b1 ?
b1 K
17
15
b11111111111111111111111111111000 %
b11111111111111111111111111111000 <
b1000 M
b1000 "
b1000 :
b1000 U
b0 '
b0 D
b0 X
b11001 -
b11001 F
b11001 V
b1 I
b1100011 /
b1100011 B
b1100011 ]
b1100011 C
0,
16
b11111111111111111111111111111000 2
b11111111111111111111111111111000 ^
b1000 .
b1000 >
b11111110000000001001110011100011 1
b11111110000000001001110011100011 G
b11111110000000001001110011100011 T
b11111110000000001001110011100011 \
b10000 &
b10000 ;
b10000 R
b11 *
b11 A
b11 Y
b10000 9
1!
#80
0!
#85
b1001 *
b1001 A
b1001 Y
b1010 )
b1010 E
b1010 W
1,
0$
b11 %
b11 <
b101000001101 3
b101000001101 N
b11 (
b11 @
b11 O
b11 Z
b1 '
b1 D
b1 X
b1010 -
b1010 F
b1010 V
b0 I
b0 H
b110011 /
b110011 B
b110011 ]
b110011 C
06
07
b0 4
b0 ?
b0 K
05
b11111111111111111111111111111111 2
b11111111111111111111111111111111 ^
b1100 M
b1100 "
b1100 :
b1100 U
b101010000010100110011 1
b101010000010100110011 G
b101010000010100110011 T
b101010000010100110011 \
b1100 .
b1100 >
b1000 R
b1001 &
b1001 ;
b1000 9
1!
#90
0!
#95
b1101100011011000110010101001000 3
b1101100011011000110010101001000 N
b11111111111111111111111111111111 %
b11111111111111111111111111111111 <
b1 )
b1 E
b1 W
16
b10 M
b10 "
b10 :
b10 U
b0 (
b0 @
b0 O
b0 Z
b11111 '
b11111 D
b11111 X
b1 -
b1 F
b1 V
b1111111 H
b10011 /
b10011 B
b10011 ]
b10011 C
b11001 8
b11001 =
b11001 J
1,
b10 .
b10 >
b11111111111100001000000010010011 1
b11111111111100001000000010010011 G
b11111111111100001000000010010011 T
b11111111111100001000000010010011 \
b11 &
b11 ;
b1100 R
b11 *
b11 A
b11 Y
b1100 9
1!
#100
0!
#105
b100001011001000110110001110010 3
b100001011001000110110001110010 N
1$
b1 4
b1 ?
b1 K
17
15
b11111111111111111111111111111000 %
b11111111111111111111111111111000 <
b0 '
b0 D
b0 X
b11001 -
b11001 F
b11001 V
b1 I
b1100011 /
b1100011 B
b1100011 ]
b1100011 C
0,
16
b11111111111111111111111111111000 2
b11111111111111111111111111111000 ^
b1000 M
b1000 "
b1000 :
b1000 U
b11111110000000001001110011100011 1
b11111110000000001001110011100011 G
b11111110000000001001110011100011 T
b11111110000000001001110011100011 \
b1000 .
b1000 >
b10000 R
b10000 &
b10000 ;
b10000 9
b10 *
b10 A
b10 Y
1!
#110
0!
#115
b1100 *
b1100 A
b1100 Y
b1010 )
b1010 E
b1010 W
1,
0$
b10 %
b10 <
b101000001101 3
b101000001101 N
b10 (
b10 @
b10 O
b10 Z
b1 '
b1 D
b1 X
b1010 -
b1010 F
b1010 V
b0 I
b0 H
b110011 /
b110011 B
b110011 ]
b110011 C
06
07
b0 4
b0 ?
b0 K
05
b11111111111111111111111111111111 2
b11111111111111111111111111111111 ^
b1110 M
b1110 "
b1110 :
b1110 U
b101010000010100110011 1
b101010000010100110011 G
b101010000010100110011 T
b101010000010100110011 \
b1110 .
b1110 >
b1000 R
b1100 &
b1100 ;
b1000 9
1!
#120
0!
#125
b11111111111111111111111111111111 %
b11111111111111111111111111111111 <
b1 )
b1 E
b1 W
16
b1101100011011000110010101001000 3
b1101100011011000110010101001000 N
b0 (
b0 @
b0 O
b0 Z
b11111 '
b11111 D
b11111 X
b1 -
b1 F
b1 V
b1111111 H
b10011 /
b10011 B
b10011 ]
b10011 C
b11001 8
b11001 =
b11001 J
1,
b1 M
b1 "
b1 :
b1 U
b11111111111100001000000010010011 1
b11111111111100001000000010010011 G
b11111111111100001000000010010011 T
b11111111111100001000000010010011 \
b1 .
b1 >
b1100 R
b10 &
b10 ;
b1100 9
b10 *
b10 A
b10 Y
1!
#130
0!
#135
b100001011001000110110001110010 3
b100001011001000110110001110010 N
1$
b1 4
b1 ?
b1 K
17
15
b11111111111111111111111111111000 %
b11111111111111111111111111111000 <
b1000 M
b1000 "
b1000 :
b1000 U
b0 '
b0 D
b0 X
b11001 -
b11001 F
b11001 V
b1 I
b1100011 /
b1100011 B
b1100011 ]
b1100011 C
0,
16
b11111111111111111111111111111000 2
b11111111111111111111111111111000 ^
b1000 .
b1000 >
b11111110000000001001110011100011 1
b11111110000000001001110011100011 G
b11111110000000001001110011100011 T
b11111110000000001001110011100011 \
b10000 &
b10000 ;
b10000 R
b1 *
b1 A
b1 Y
b10000 9
1!
#140
0!
#145
b1110 *
b1110 A
b1110 Y
b1010 )
b1010 E
b1010 W
1,
0$
b1 %
b1 <
b101000001101 3
b101000001101 N
b1 (
b1 @
b1 O
b1 Z
b1 '
b1 D
b1 X
b1010 -
b1010 F
b1010 V
b0 I
b0 H
b110011 /
b110011 B
b110011 ]
b110011 C
06
07
b0 4
b0 ?
b0 K
05
b11111111111111111111111111111111 2
b11111111111111111111111111111111 ^
b1111 M
b1111 "
b1111 :
b1111 U
b101010000010100110011 1
b101010000010100110011 G
b101010000010100110011 T
b101010000010100110011 \
b1111 .
b1111 >
b1000 R
b1110 &
b1110 ;
b1000 9
1!
#150
0!
#155
b1101100011011000110010101001000 3
b1101100011011000110010101001000 N
b11111111111111111111111111111111 %
b11111111111111111111111111111111 <
b1 )
b1 E
b1 W
16
b0 M
b0 "
b0 :
b0 U
b0 (
b0 @
b0 O
b0 Z
b11111 '
b11111 D
b11111 X
b1 -
b1 F
b1 V
b1111111 H
b10011 /
b10011 B
b10011 ]
b10011 C
b11001 8
b11001 =
b11001 J
1,
b0 .
b0 >
b11111111111100001000000010010011 1
b11111111111100001000000010010011 G
b11111111111100001000000010010011 T
b11111111111100001000000010010011 \
b1 &
b1 ;
b1100 R
b1 *
b1 A
b1 Y
b1100 9
1!
